{
    "prepare_queue": {
        "installed": [],
        "uninstalled": []
    },
    "config_munge": {
        "files": {}
    },
    "installed_plugins": {
        "cordova-plugin-device": {},
        "cordova-plugin-splashscreen": {}
    },
    "dependent_plugins": {}
}
